%YAML 1.1
%TAG !u! tag:unity3d.com,2011:
--- !u!114 &11400000
MonoBehaviour:
  m_ObjectHideFlags: 0
  m_CorrespondingSourceObject: {fileID: 0}
  m_PrefabInstance: {fileID: 0}
  m_PrefabAsset: {fileID: 0}
  m_GameObject: {fileID: 0}
  m_Enabled: 1
  m_EditorHideFlags: 0
  m_Script: {fileID: 11500000, guid: f1b3b4b945939a54ea0b23d3396115fb, type: 3}
  m_Name: CowDataAsset
  m_EditorClassIdentifier: 
  atlasAssets:
  - {fileID: 11400000, guid: d6e00b8ed166dba44aa03d2031c5e486, type: 2}
  scale: 0.005
  skeletonJSON: {fileID: 4900000, guid: 848f83af75fcc3e40becea0a4f8a7430, type: 3}
  isUpgradingBlendModeMaterials: 0
  blendModeMaterials:
    requiresBlendModeMaterials: 0
    applyAdditiveMaterial: 0
    additiveMaterials: []
    multiplyMaterials: []
    screenMaterials: []
  skeletonDataModifiers: []
  fromAnimation: []
  toAnimation: []
  duration: []
  defaultMix: 0
  controller: {fileID: 0}
